{
  "uuid": "0d455145-2c36-3d81-80a1-55d5af6adde4",
  "name": "UserFixe_1",
  "wins": 37,
  "losses": 32,
  "requests": true,
  "rating": {
    "arenakit": 1380
  },
  "matches": [
    {
      "winner": "User_2",
      "loser": "UserFixe_1",
      "kit": "arenakit",
      "time": 1683963243866,
      "duration": 25461,
      "health": 6.5
    },
    {
      "winner": "User_2",
      "loser": "UserFixe_1",
      "kit": "arenakit",
      "time": 1683963243866,
      "duration": 67177,
      "health": 10.0
    },
    {
      "winner": "User_2",
      "loser": "UserFixe_1",
      "kit": "arenakit",
      "time": 1683963243866,
      "duration": 33277,
      "health": 10.0
    },
    {
      "winner": "UserFixe_1",
      "loser": "UserFixe_2",
      "kit": "arenakit",
      "time": 1683963243866,
      "duration": 19150,
      "health": 7.0
    },
    {
      "winner": "User_1",
      "loser": "UserFixe_1",
      "kit": "arenakit",
      "time": 1683963243866,
      "duration": 24583,
      "health": 8.0
    }
  ]
}